NRF Times
618
648
678
707
739
770
803
834
865
897
927
958
991
21
53
85
115
147
176
210
242
272
302
333
365
395
427
458
489
522
552
584
616
648
677
712
740
771
801
835
868
897
928
959
989
23
63
83
115
146
178
210
242
271
302
36
68
101
132
161
194
224
256
287
318
349
378
414
441
476
506
537
571
600
630
663
694
724
755
787
818
847
881
909
943
974
5
36
66
98
129
163
194
223
257
285
316
350
378
414
Telit Times
323
356
389
418
445
481
513
542
571
608
636
666
699
727
761
794
821
856
886
917
950
979
14
43
75
107
134
169
200
231
261
294
325
353
384
417
447
477
510
547
571
608
641
663
697
729
756
793
826
857
886
918
950
980
717
744
777
803
839
872
901
936
963
995
28
54
87
117
148
182
213
246
273
304
341
372
406
430
465
497
526
554
583
618
645
679
708
742
771
804
836
864
898
930
958
992
22
55
84
119
