NRF Times
7.09828e+07
7.09856e+07
7.09884e+07
7.09913e+07
7.09941e+07
7.09969e+07
7.09997e+07
7.10025e+07
7.10053e+07
7.10081e+07
Telit Times
7.09835e+077.09863e+077.09892e+077.0992e+077.09948e+077.09976e+077.10004e+077.10032e+077.1006e+077.10089e+07