NRF Times
849
880
912
945
978
8
38
67
102
132
162
193
224
257
288
317
348
381
412
444
475
508
539
569
599
630
663
693
725
757
787
817
851
883
911
945
976
5
35
66
100
129
161
193
224
255
285
317
349
382
411
441
473
505
536
567
601
629
366
99
832
569
302
38
773
508
241
974
708
444
178
911
645
383
117
854
586
320
52
789
521
255
992
724
458
191
928
663
401
131
867
600
334
67
804
537
268
3
740
476
207
943
677
411
146
882
613
351
85
818
553
287
19
753
492
227
957
691
427
163
898
632
368
98
834
568
300
336
68
801
535
270
6
744
472
210
943
678
410
145
879
612
349
84
817
552
289
19
754
488
223
956
696
425
159
895
628
363
98
836
569
300
36
771
507
241
977
707
444
175
913
646
381
116
847
585
317
52
789
524
255
989
726
458
191
927
662
398
131
863
598
332
71
800
535
272
5
741
474
207
943
676
413
147
881
614
347
85
817
554
286
20
757
487
224
663
97
537
974
410
851
288
723
163
599
36
475
913
352
786
226
662
100
538
982
412
850
289
723
163
602
334
771
212
645
84
528
958
397
836
270
708
148
584
21
461
897
336
774
216
645
83
524
960
400
838
866
896
931
961
992
25
56
83
117
148
183
211
245
270
303
337
368
396
431
462
492
522
553
583
618
647
679
710
740
772
804
834
868
896
928
958
997
23
53
85
116
145
179
210
239
274
302
334
368
400
428
459
491
522
552
583
615
647
681
710
740
775
809
834
571
600
633
662
696
727
758
788
818
851
885
912
944
975
8
39
69
104
131
163
198
224
259
289
319
352
384
412
448
476
506
541
569
605
334
369
397
430
460
490
524
550
585
615
646
681
710
743
771
806
835
575
601
633
663
694
727
754
789
822
851
884
912
945
974
7
36
70
100
132
166
195
226
258
290
327
356
388
419
450
480
514
544
576
606
639
671
701
730
765
790
823
851
886
920
945
982
13
39
74
107
140
168
200
231
266
295
327
358
387
420
452
483
514
538
576
609
631
671
703
732
764
789
829
857
892
920
946
984
16
45
76
106
139
170
200
233
259
294
325
358
388
419
447
483
210
247
278
309
340
374
404
437
466
495
529
561
592
621
652
686
715
743
780
812
835
875
903
936
968
996
29
60
90
124
153
186
221
248
278
303
342
373
403
433
464
492
528
559
591
627
654
685
713
749
781
804
840
875
902
936
964
997
24
59
93
118
152
180
217
246
278
308
336
372
403
437
463
500
528
562
591
620
654
687
715
749
778
809
846
877
905
932
967
997
30
59
92
122
154
190
216
249
276
309
342
375
403
430
468
499
529
558
593
624
656
685
715
745
780
810
843
873
904
935
966
997
31
71
84
123
157
180
209
945
984
13
40
76
106
138
168
197
233
260
295
326
352
387
421
451
484
515
543
570
609
638
668
703
734
763
796
829
856
887
920
950
982
8
44
74
106
139
172
196
232
271
294
325
354
390
417
450
482
509
543
275
312
343
372
403
434
469
495
528
560
591
624
655
683
714
746
781
809
843
875
904
936
966
997
25
58
93
122
153
181
213
247
273
311
343
372
403
434
461
497
523
561
591
621
658
686
716
747
780
809
841
873
902
929
966
0
27
60
94
123
154
185
219
242
282
312
340
375
404
437
462
493
524
558
590
623
653
685
718
744
778
809
842
869
902
935
969
999
32
61
92
123
153
186
212
248
278
311
343
373
406
434
470
498
523
556
586
618
655
684
718
748
780
810
836
874
908
934
966
0
31
762
795
828
858
887
918
952
977
9
41
76
102
138
170
197
231
264
296
324
350
390
419
445
482
513
545
575
608
634
669
700
733
762
796
825
856
890
922
946
689
717
749
781
814
842
870
907
938
965
995
32
59
89
121
152
188
216
252
279
312
337
374
404
435
466
500
528
554
592
621
652
687
717
742
780
807
836
875
909
932
960
992
25
54
92
124
154
187
215
249
279
312
339
371
410
438
463
497
531
560
591
623
656
685
718
747
780
811
842
876
903
937
962
999
23
62
95
125
153
185
216
247
279
314
343
369
403
437
466
494
529
560
584
625
655
685
712
750
774
810
843
869
904
937
962
998
29
59
95
126
154
188
218
248
274
311
342
374
408
437
467
492
529
561
589
624
650
689
713
755
779
812
843
875
905
931
968
0
31
54
88
122
153
183
216
241
281
313
341
369
398
438
466
495
522
559
592
617
653
683
716
750
777
811
842
875
910
936
971
992
31
56
93
122
155
186
214
250
279
313
342
372
405
Telit Times
555
591
620
653
683
715
740
777
809
839
866
900
936
965
997
23
56
89
125
153
179
215
245
280
308
340
373
403
428
461
492
525
552
586
619
648
677
712
743
774
805
834
867
897
929
960
992
21
52
85
119
147
180
209
243
272
305
37
771
506
244
974
711
451
179
911
652
384
123
853
591
324
52
794
529
262
991
726
467
199
936
663
402
137
875
608
339
74
806
539
273
9
747
481
212
943
679
414
145
884
615
352
87
818
556
288
22
756
489
224
959
695
430
162
897
634
366
103
834
569
304
37
772
507
240
975
5
743
477
208
943
678
413
148
883
617
353
88
821
553
286
22
756
491
228
961
695
432
163
899
633
367
103
835
571
303
38
773
508
244
978
713
445
180
914
649
383
117
849
585
319
54
790
523
255
990
725
459
193
930
662
396
131
868
599
336
73
806
537
272
10
742
476
211
944
679
412
149
883
615
349
86
820
554
287
22
757
493
226
958
697
431
163
896
334
771
208
649
86
522
961
399
837
275
712
146
591
23
467
902
335
778
209
656
83
528
964
402
840
279
14
450
880
324
759
201
633
72
512
951
387
824
264
696
140
575
14
446
888
325
755
200
642
77
516
545
576
602
637
671
699
732
765
794
818
857
887
914
949
982
16
41
73
109
134
172
196
231
261
291
320
357
381
419
448
475
508
544
576
603
630
661
698
732
764
790
823
856
886
918
945
976
4
45
71
105
133
168
197
227
261
295
322
355
383
415
451
474
509
242
276
309
338
372
399
432
465
494
527
554
588
618
652
678
712
743
779
808
837
867
901
932
965
992
28
55
92
119
149
182
215
249
271
5
44
73
104
135
161
199
231
263
293
317
356
381
419
451
481
512
245
278
304
341
367
400
433
459
496
527
559
592
621
650
685
713
747
778
806
838
871
899
932
959
996
28
57
90
124
153
182
216
244
271
308
338
371
399
431
464
495
523
554
586
623
650
682
713
747
779
805
836
872
899
937
962
997
28
54
87
121
147
184
214
239
281
307
338
373
403
431
463
497
525
553
593
622
649
682
716
743
775
810
842
870
904
932
965
994
31
51
92
120
150
886
918
945
984
12
38
77
103
137
169
198
228
260
291
326
355
387
417
448
481
506
546
576
599
635
667
698
731
757
789
819
855
889
916
952
978
10
44
74
103
137
172
203
231
258
293
321
354
388
418
448
480
513
546
569
605
632
672
696
727
764
793
824
854
885
919
944
980
16
45
70
106
138
170
204
224
262
291
321
358
381
422
452
484
511
540
573
604
636
668
696
731
764
793
825
854
885
921
952
974
11
39
77
104
136
163
198
235
264
294
322
353
387
422
449
482
507
539
574
606
641
668
699
730
761
791
825
857
881
618
654
683
716
740
779
806
837
870
903
933
961
995
28
59
90
121
152
178
213
247
274
311
338
371
398
435
463
490
530
560
589
618
651
682
714
747
781
808
839
875
906
930
967
2
27
61
94
122
150
185
210
946
980
11
40
68
104
137
168
198
237
261
291
323
353
385
417
448
480
509
543
578
605
631
667
700
731
763
792
822
854
880
912
946
978
10
45
72
105
136
173
192
230
262
291
325
355
383
420
447
479
511
540
575
603
637
664
701
734
764
795
820
853
885
919
949
979
11
43
72
109
138
163
202
233
268
296
325
355
385
418
448
474
516
546
571
604
635
670
700
732
765
793
824
857
889
915
945
981
10
40
75
103
130
167
201
231
259
292
325
350
388
417
443
481
513
543
579
608
636
668
696
435
465
497
525
559
587
622
651
683
710
747
775
810
839
872
899
933
967
997
26
64
92
124
151
182
214
243
280
308
338
376
405
437
464
497
529
552
587
619
356
385
418
452
476
510
539
573
601
635
663
706
729
759
794
827
855
887
923
946
979
15
39
73
105
139
168
199
232
258
291
323
353
387
420
454
488
517
552
574
605
641
664
697
731
761
795
822
854
890
917
944
976
9
44
72
108
134
167
201
228
259
291
325
355
383
413
450
481
511
542
569
600
632
669
703
730
763
799
819
858
888
922
949
978
11
49
79
100
137
169
203
229
261
293
320
357
386
423
447
475
514
546
573
609
635
671
703
732
759
794
822
855
882
919
947
985
13
43
82
106
139
167
204
229
261
295
321
354
387
414
453
485
509
543
575
605
638
674
695
736
762
790
821
860
893
919
950
976
13
37
72
100
140
169
195
230
268
289
326
359
382
418
448
481
514
542
579
601
634
662
699
730
768
809
826
856
882
917
948
980
12
43
78
105
