Version 4
SHEET 1 880 680
WIRE 288 -128 256 -128
WIRE 384 -128 352 -128
WIRE 256 -32 256 -128
WIRE 272 -32 256 -32
WIRE 384 -32 384 -128
WIRE 384 -32 352 -32
WIRE -208 112 -208 64
WIRE 144 112 112 112
WIRE 304 144 304 80
WIRE 224 160 224 112
WIRE 256 160 256 -32
WIRE 256 160 224 160
WIRE 272 160 256 160
WIRE 384 176 384 -32
WIRE 384 176 336 176
WIRE 128 192 96 192
WIRE 224 192 208 192
WIRE 272 192 224 192
WIRE -208 208 -208 192
WIRE -128 208 -208 208
WIRE 384 208 384 176
WIRE -208 224 -208 208
WIRE 224 256 224 192
WIRE 224 256 144 256
WIRE 304 256 304 208
WIRE 144 272 144 256
WIRE 224 272 224 256
WIRE 384 320 384 288
WIRE -208 336 -208 304
WIRE 144 368 144 336
WIRE 224 368 224 352
WIRE 224 368 144 368
WIRE 224 400 224 368
FLAG -352 240 0
FLAG -352 160 Vusb
FLAG -208 336 0
FLAG -208 64 Vusb
FLAG 304 256 0
FLAG 304 80 Vusb
FLAG 224 400 0
FLAG 96 192 Vusb
FLAG -128 208 Measure
FLAG 112 112 Measure
FLAG 384 320 0
SYMBOL Opamps\\UniversalOpamp2 304 176 R0
SYMATTR InstName U1
SYMBOL voltage -352 144 R0
WINDOW 123 0 0 Left 0
WINDOW 39 0 0 Left 0
SYMATTR InstName V1
SYMATTR Value 5
SYMBOL res -224 96 R0
SYMATTR InstName R1
SYMATTR Value 1
SYMBOL res 224 176 R90
WINDOW 0 0 56 VBottom 2
WINDOW 3 32 56 VTop 2
SYMATTR InstName R3
SYMATTR Value 10k
SYMBOL res 240 368 R180
WINDOW 0 36 76 Left 2
WINDOW 3 36 40 Left 2
SYMATTR InstName R4
SYMATTR Value 100k
SYMBOL res 240 96 R90
WINDOW 0 0 56 VBottom 2
WINDOW 3 32 56 VTop 2
SYMATTR InstName R5
SYMATTR Value 10k
SYMBOL res 368 -48 R90
WINDOW 0 0 56 VBottom 2
WINDOW 3 32 56 VTop 2
SYMATTR InstName R6
SYMATTR Value 100k
SYMBOL res 368 192 R0
SYMATTR InstName R8
SYMATTR Value 10k
SYMBOL current -208 224 R0
WINDOW 3 -51 163 Left 2
WINDOW 123 0 0 Left 0
WINDOW 39 0 0 Left 0
SYMATTR InstName I1
SYMATTR Value PULSE(0 175m 1m 1u 1u 1m 2m)
SYMBOL cap 352 -144 R90
WINDOW 0 0 32 VBottom 2
WINDOW 3 32 32 VTop 2
SYMATTR InstName C1
SYMBOL cap 160 336 R180
WINDOW 0 24 56 Left 2
WINDOW 3 24 8 Left 2
SYMATTR InstName C2
TEXT -384 360 Left 2 !.tran 20m
